C:\Users\arun\workspace\CarmaticQaAdmin\src\main\java\com\carmaticQaAdmin\pages\HomePage.java
C:\Users\arun\workspace\CarmaticQaAdmin\src\main\java\com\carmaticQaAdmin\util\ExcelReader.java
C:\Users\arun\workspace\CarmaticQaAdmin\src\main\java\com\carmaticQaAdmin\util\ExtentReportUtil.java
C:\Users\arun\workspace\CarmaticQaAdmin\src\main\java\com\carmaticQaAdmin\pages\BasePage.java
C:\Users\arun\workspace\CarmaticQaAdmin\src\main\java\com\carmaticQaAdmin\pages\LoginPage.java
C:\Users\arun\workspace\CarmaticQaAdmin\src\main\java\com\carmaticQaAdmin\util\ElementUtil.java
